2019-11-23 14:14:23,762 ERROR: Exception on /api/cars [GET] [in /home/red23/.local/lib/python3.6/site-packages/flask/app.py:1761
Traceback (most recent call last):
  File "/home/red23/.local/lib/python3.6/site-packages/sqlalchemy/engine/base.py", line 1193, in _execute_context
    context)
  File "/home/red23/.local/lib/python3.6/site-packages/sqlalchemy/engine/default.py", line 509, in do_execute
    cursor.execute(statement, parameters)
sqlite3.OperationalError: no such column: car.user_name

The above exception was the direct cause of the following exception:

Traceback (most recent call last):
  File "/home/red23/.local/lib/python3.6/site-packages/flask/app.py", line 2292, in wsgi_app
    response = self.full_dispatch_request()
  File "/home/red23/.local/lib/python3.6/site-packages/flask/app.py", line 1815, in full_dispatch_request
    rv = self.handle_user_exception(e)
  File "/home/red23/.local/lib/python3.6/site-packages/flask/app.py", line 1718, in handle_user_exception
    reraise(exc_type, exc_value, tb)
  File "/home/red23/.local/lib/python3.6/site-packages/flask/_compat.py", line 35, in reraise
    raise value
  File "/home/red23/.local/lib/python3.6/site-packages/flask/app.py", line 1813, in full_dispatch_request
    rv = self.dispatch_request()
  File "/home/red23/.local/lib/python3.6/site-packages/flask/app.py", line 1799, in dispatch_request
    return self.view_functions[rule.endpoint](**req.view_args)
  File "/home/red23/home/app/api/car.py", line 22, in get_cars
    data = Car.to_collection_dict(Car.query, page, per_page, 'api.get_cars')
  File "/home/red23/home/app/models.py", line 9, in to_collection_dict
    resources = query.paginate(page, per_page, False)
  File "/home/red23/.local/lib/python3.6/site-packages/flask_sqlalchemy/__init__.py", line 491, in paginate
    items = self.limit(per_page).offset((page - 1) * per_page).all()
  File "/home/red23/.local/lib/python3.6/site-packages/sqlalchemy/orm/query.py", line 2836, in all
    return list(self)
  File "/home/red23/.local/lib/python3.6/site-packages/sqlalchemy/orm/query.py", line 2988, in __iter__
    return self._execute_and_instances(context)
  File "/home/red23/.local/lib/python3.6/site-packages/sqlalchemy/orm/query.py", line 3011, in _execute_and_instances
    result = conn.execute(querycontext.statement, self._params)
  File "/home/red23/.local/lib/python3.6/site-packages/sqlalchemy/engine/base.py", line 948, in execute
    return meth(self, multiparams, params)
  File "/home/red23/.local/lib/python3.6/site-packages/sqlalchemy/sql/elements.py", line 269, in _execute_on_connection
    return connection._execute_clauseelement(self, multiparams, params)
  File "/home/red23/.local/lib/python3.6/site-packages/sqlalchemy/engine/base.py", line 1060, in _execute_clauseelement
    compiled_sql, distilled_params
  File "/home/red23/.local/lib/python3.6/site-packages/sqlalchemy/engine/base.py", line 1200, in _execute_context
    context)
  File "/home/red23/.local/lib/python3.6/site-packages/sqlalchemy/engine/base.py", line 1413, in _handle_dbapi_exception
    exc_info
  File "/home/red23/.local/lib/python3.6/site-packages/sqlalchemy/util/compat.py", line 265, in raise_from_cause
    reraise(type(exception), exception, tb=exc_tb, cause=cause)
  File "/home/red23/.local/lib/python3.6/site-packages/sqlalchemy/util/compat.py", line 248, in reraise
    raise value.with_traceback(tb)
  File "/home/red23/.local/lib/python3.6/site-packages/sqlalchemy/engine/base.py", line 1193, in _execute_context
    context)
  File "/home/red23/.local/lib/python3.6/site-packages/sqlalchemy/engine/default.py", line 509, in do_execute
    cursor.execute(statement, parameters)
sqlalchemy.exc.OperationalError: (sqlite3.OperationalError) no such column: car.user_name [SQL: 'SELECT car.id AS car_id, car.user_name AS car_user_name, car.user_phone AS car_user_phone, car.model AS car_model, car.model_number AS car_model_number \nFROM car\n LIMIT ? OFFSET ?'] [parameters: (10, 0)] (Background on this error at: http://sqlalche.me/e/e3q8)
2019-11-23 14:17:59,016 INFO: CAR-API startup [in /home/red23/home/app/__init__.py:32
2019-11-23 14:18:18,325 ERROR: Exception on /api/cars [GET] [in /home/red23/.local/lib/python3.6/site-packages/flask/app.py:1761
Traceback (most recent call last):
  File "/home/red23/.local/lib/python3.6/site-packages/sqlalchemy/engine/base.py", line 1193, in _execute_context
    context)
  File "/home/red23/.local/lib/python3.6/site-packages/sqlalchemy/engine/default.py", line 509, in do_execute
    cursor.execute(statement, parameters)
sqlite3.OperationalError: no such column: car.user_name

The above exception was the direct cause of the following exception:

Traceback (most recent call last):
  File "/home/red23/.local/lib/python3.6/site-packages/flask/app.py", line 2292, in wsgi_app
    response = self.full_dispatch_request()
  File "/home/red23/.local/lib/python3.6/site-packages/flask/app.py", line 1815, in full_dispatch_request
    rv = self.handle_user_exception(e)
  File "/home/red23/.local/lib/python3.6/site-packages/flask/app.py", line 1718, in handle_user_exception
    reraise(exc_type, exc_value, tb)
  File "/home/red23/.local/lib/python3.6/site-packages/flask/_compat.py", line 35, in reraise
    raise value
  File "/home/red23/.local/lib/python3.6/site-packages/flask/app.py", line 1813, in full_dispatch_request
    rv = self.dispatch_request()
  File "/home/red23/.local/lib/python3.6/site-packages/flask/app.py", line 1799, in dispatch_request
    return self.view_functions[rule.endpoint](**req.view_args)
  File "/home/red23/home/app/api/car.py", line 22, in get_cars
    data = Car.to_collection_dict(Car.query, page, per_page, 'api.get_cars')
  File "/home/red23/home/app/models.py", line 9, in to_collection_dict
    resources = query.paginate(page, per_page, False)
  File "/home/red23/.local/lib/python3.6/site-packages/flask_sqlalchemy/__init__.py", line 491, in paginate
    items = self.limit(per_page).offset((page - 1) * per_page).all()
  File "/home/red23/.local/lib/python3.6/site-packages/sqlalchemy/orm/query.py", line 2836, in all
    return list(self)
  File "/home/red23/.local/lib/python3.6/site-packages/sqlalchemy/orm/query.py", line 2988, in __iter__
    return self._execute_and_instances(context)
  File "/home/red23/.local/lib/python3.6/site-packages/sqlalchemy/orm/query.py", line 3011, in _execute_and_instances
    result = conn.execute(querycontext.statement, self._params)
  File "/home/red23/.local/lib/python3.6/site-packages/sqlalchemy/engine/base.py", line 948, in execute
    return meth(self, multiparams, params)
  File "/home/red23/.local/lib/python3.6/site-packages/sqlalchemy/sql/elements.py", line 269, in _execute_on_connection
    return connection._execute_clauseelement(self, multiparams, params)
  File "/home/red23/.local/lib/python3.6/site-packages/sqlalchemy/engine/base.py", line 1060, in _execute_clauseelement
    compiled_sql, distilled_params
  File "/home/red23/.local/lib/python3.6/site-packages/sqlalchemy/engine/base.py", line 1200, in _execute_context
    context)
  File "/home/red23/.local/lib/python3.6/site-packages/sqlalchemy/engine/base.py", line 1413, in _handle_dbapi_exception
    exc_info
  File "/home/red23/.local/lib/python3.6/site-packages/sqlalchemy/util/compat.py", line 265, in raise_from_cause
    reraise(type(exception), exception, tb=exc_tb, cause=cause)
  File "/home/red23/.local/lib/python3.6/site-packages/sqlalchemy/util/compat.py", line 248, in reraise
    raise value.with_traceback(tb)
  File "/home/red23/.local/lib/python3.6/site-packages/sqlalchemy/engine/base.py", line 1193, in _execute_context
    context)
  File "/home/red23/.local/lib/python3.6/site-packages/sqlalchemy/engine/default.py", line 509, in do_execute
    cursor.execute(statement, parameters)
sqlalchemy.exc.OperationalError: (sqlite3.OperationalError) no such column: car.user_name [SQL: 'SELECT car.id AS car_id, car.user_name AS car_user_name, car.user_phone AS car_user_phone, car.model AS car_model, car.model_number AS car_model_number \nFROM car\n LIMIT ? OFFSET ?'] [parameters: (10, 0)] (Background on this error at: http://sqlalche.me/e/e3q8)
